[
	{
		"day": "monday",
		"shift": 1,
		"date": "2018-11-26",
		"employeeId": 636
	},
	{
		"day": "monday",
		"shift": 2,
		"date": "2018-11-26",
		"employeeId": 636
	},
	{
		"day": "monday",
		"shift": 3,
		"date": "2018-11-26",
		"employeeId": 637
	},
	{
		"day": "monday",
		"shift": 4,
		"date": "2018-11-26",
		"employeeId": 638
	},
	{
		"day": "tuesday",
		"shift": 1,
		"date": "2018-11-27",
		"employeeId": 636
	},
	{
		"day": "tuesday",
		"shift": 2,
		"date": "2018-11-27",
		"employeeId": 636
	},
	{
		"day": "tuesday",
		"shift": 3,
		"date": "2018-11-27",
		"employeeId": 637
	},
	{
		"day": "tuesday",
		"shift": 4,
		"date": "2018-11-27",
		"employeeId": 638
	}
]